…
cities <- rbind(html_table(cities[[1]])) %>% 
  janitor::clean_names()

cities <- cities %>% 
  mutate(city = sapply(strsplit(as.character(cities$place_name),","), "[", 1),
         state = sapply(strsplit(as.character(cities$place_name),","), "[", 2),
         country = sapply(strsplit(as.character(cities$place_name),","), "[", 3))

cities <- cities %>% 
  mutate(id = row_number())

cities
#> # A tibble: 100 x 7
#>    place_name            latitude longitude city         state country    id
#>    <chr>                    <dbl>     <dbl> <chr>        <chr> <chr>   <int>
#>  1 Plattsburgh, NY, USA      44.7     -73.5 Plattsburgh  " NY" " USA"      1
#>  2 Peekskill, NY, USA        41.3     -73.9 Peekskill    " NY" " USA"      2
#>  3 Oneida, NY, USA           43.1     -75.7 Oneida       " NY" " USA"      3
#>  4 New Rochelle, NY, USA     40.9     -73.8 New Rochelle " NY" " USA"      4
#>  5 Mount Vernon, NY, USA     40.9     -73.8 Mount Vernon " NY" " USA"      5
#>  6 Middletown, NY, USA       41.5     -74.4 Middletown   " NY" " USA"      6
#>  7 Lockport, NY, USA         43.2     -78.7 Lockport     " NY" " USA"      7
#>  8 Lackawanna, NY, USA       42.8     -78.8 Lackawanna   " NY" " USA"      8
#>  9 Kingston, NY, USA         41.9     -74.0 Kingston     " NY" " USA"      9
#> 10 Johnstown, NY, USA        43.0     -74.4 Johnstown    " NY" " USA"     10
#> # ... with 90 more rows
```
…
